[
  {
    "uri": "features/social/bespoke_sharing_via_social_footer.feature",
    "id": "bespoke-sharing-via-social-footer",
    "keyword": "Feature",
    "name": "Bespoke sharing via Social footer",
    "description": "**Description**:\nIn order to share Bespoke\nAs a blippar user\nI want to verify the behaviour app sharing on Facebook ,Twitter and Email.\n\n**Preconditions**:\nShould be within a Blipp using Bespoke Sharing mode\nShould have the Facebook, Twitter and Email applications  installed and logged in on  devices",
    "line": 2,
    "tags": [
      {
        "name": "@JIRA-AM-15",
        "line": 1
      },
      {
        "name": "@android",
        "line": 1
      }
    ],
    "elements": [
      {
        "id": "bespoke-sharing-via-social-footer;verify-sharing-of-bespoke-blipp-and-photo-via-email",
        "keyword": "Scenario",
        "name": "Verify Sharing of Bespoke blipp and Photo via Email",
        "description": "",
        "line": 65,
        "type": "scenario",
        "tags": [
          {
            "name": "@JIRA-AM-15",
            "line": 1
          },
          {
            "name": "@android",
            "line": 1
          },
          {
            "name": "@social",
            "line": 64
          }
        ],
        "before": [
          {
            "output": [
              "start intialising",
              "intilize appium started",
              "Appium driver is started",
              "dbef963b"
            ],
            "match": {
              "location": "platforms/support/env.rb:19"
            },
            "result": {
              "status": "passed",
              "duration": 11127874936
            }
          },
          {
            "match": {
              "location": "platforms/support/env.rb:28"
            },
            "result": {
              "status": "passed",
              "duration": 39697770
            }
          },
          {
            "match": {
              "location": "platforms/support/hooks/hooks_video.rb:124"
            },
            "result": {
              "status": "passed",
              "duration": 47982
            }
          }
        ],
        "steps": [
          {
            "keyword": "Given ",
            "name": "I trigger the \"Guardians of galaxy\" blipp",
            "line": 67,
            "match": {
              "location": "platforms/step_definitions/common_steps.rb:20"
            },
            "result": {
              "status": "passed",
              "duration": 129253028124
            }
          },
          {
            "keyword": "Then ",
            "name": "I verify blipp \"Guardians of galaxy\" is loaded successfully",
            "line": 68,
            "match": {
              "location": "platforms/step_definitions/common_steps.rb:16"
            },
            "result": {
              "status": "passed",
              "duration": 5090059233
            }
          },
          {
            "keyword": "When ",
            "name": "I tap on the \"Share Photo\" button",
            "line": 69,
            "match": {
              "location": "platforms/step_definitions/blipp_steps.rb.rb:2"
            },
            "result": {
              "status": "passed",
              "duration": 8027694027
            }
          },
          {
            "keyword": "Then ",
            "name": "I should see all the icons Facebook, Twitter and Email",
            "line": 70,
            "match": {
              "location": "platforms/step_definitions/blipp_steps.rb.rb:19"
            },
            "result": {
              "status": "passed",
              "duration": 216053159
            }
          },
          {
            "keyword": "When ",
            "name": "I select \"Email\" icon",
            "line": 71,
            "match": {
              "location": "platforms/step_definitions/blipp_steps.rb.rb:23"
            },
            "result": {
              "status": "passed",
              "duration": 8393612201
            }
          },
          {
            "keyword": "And ",
            "name": "I type in \"qablippar@gmail.com\"",
            "line": 72,
            "match": {
              "location": "platforms/step_definitions/blipp_steps.rb.rb:93"
            },
            "result": {
              "status": "passed",
              "duration": 12062531876
            }
          },
          {
            "keyword": "And ",
            "name": "I tap on send button",
            "line": 73,
            "match": {
              "location": "platforms/step_definitions/blipp_steps.rb.rb:97"
            },
            "result": {
              "status": "passed",
              "duration": 910916577
            }
          },
          {
            "keyword": "Then ",
            "name": "I verify email is recieved",
            "line": 74,
            "match": {
              "location": "platforms/step_definitions/blipp_steps.rb.rb:101"
            },
            "result": {
              "status": "failed",
              "error_message": "undefined method `gsub' for nil:NilClass (NoMethodError)\n./platforms/support/gmail1.rb:69:in `get_blipp_message_content'\n./platforms/android/pages/gmail_page_android.rb:39:in `verify_email_recieved'\n./platforms/step_definitions/blipp_steps.rb.rb:102:in `/^I verify email is recieved$/'\nfeatures/social/bespoke_sharing_via_social_footer.feature:74:in `Then I verify email is recieved'",
              "duration": 30614836480
            }
          }
        ],
        "after": [
          {
            "match": {
              "location": "platforms/support/hooks/hooks_video.rb:139"
            },
            "result": {
              "status": "passed",
              "duration": 30374
            }
          },
          {
            "output": [
              "quiting driver"
            ],
            "match": {
              "location": "platforms/support/env.rb:33"
            },
            "result": {
              "status": "passed",
              "duration": 9438286824
            }
          }
        ]
      }
    ]
  }
]